test 6 PTSVOX_LG009_F_session2_mic_L_1_corr_d_oiseaux_27_869 PTSVOX_LG001_F_session2_mic_L_1_corr_d_oiseau_33_94 6 2 2 1 2 0 0 0
test 27 PTSVOX_LG022_F_session3_mic_L_1_corr_l_oiseau_98_44 PTSVOX_LG009_F_session2_mic_L_1_corr_d_oiseaux_27_869 27 2 2 1 8748 8950 0 0
test 10 PTSVOX_LG009_F_session2_mic_L_1_corr_d_oiseaux_27_869 PTSVOX_LG022_F_session3_mic_L_1_corr_l_oiseau_98_44 10 2 1 2 5302 8950 0 0
test 17 PTSVOX_LG014_F_session3_mic_L_1_corr_d_oiseaux_23_79 PTSVOX_LG009_F_session2_mic_L_1_corr_d_oiseaux_27_869 17 1 2 2 2185 2381 0 0
test 5 PTSVOX_LG001_F_session2_mic_L_1_corr_d_oiseau_33_94 PTSVOX_LG022_F_session3_mic_L_1_corr_l_oiseau_98_44 5 1 1 1 1823 2094 0 0
test 25 PTSVOX_LG020_F_session2_mic_L_1_corr_d_oiseaux_29_71 PTSVOX_LG022_F_session3_mic_L_1_corr_l_oiseau_98_44 25 1 1 1 770 1100 0 0
test 23 PTSVOX_LG020_F_session2_mic_L_1_corr_d_oiseaux_29_71 PTSVOX_LG011_F_session2_mic_L_1_corr_d_oiseaux_19_947 23 1 2 2 457 801 0 0
test 18 PTSVOX_LG014_F_session3_mic_L_1_corr_d_oiseaux_23_79 PTSVOX_LG011_F_session2_mic_L_1_corr_d_oiseaux_19_947 18 1 2 2 2477 2657 0 0
test 11 PTSVOX_LG011_F_session2_mic_L_1_corr_d_oiseaux_19_947 PTSVOX_LG001_F_session2_mic_L_1_corr_d_oiseau_33_94 11 2 2 1 481 681 0 0
test 24 PTSVOX_LG020_F_session2_mic_L_1_corr_d_oiseaux_29_71 PTSVOX_LG014_F_session3_mic_L_1_corr_d_oiseaux_23_79 24 1 1 3 10000 681 0 0
test 30 PTSVOX_LG022_F_session3_mic_L_1_corr_l_oiseau_98_44 PTSVOX_LG020_F_session2_mic_L_1_corr_d_oiseaux_29_71 30 2 2 1 6438 6813 0 0
test 21 PTSVOX_LG020_F_session2_mic_L_1_corr_d_oiseaux_29_71 PTSVOX_LG001_F_session2_mic_L_1_corr_d_oiseau_33_94 21 1 2 2 832 1261 0 0
test 9 PTSVOX_LG009_F_session2_mic_L_1_corr_d_oiseaux_27_869 PTSVOX_LG020_F_session2_mic_L_1_corr_d_oiseaux_29_71 9 2 2 1 5589 5996 0 0
test 29 PTSVOX_LG022_F_session3_mic_L_1_corr_l_oiseau_98_44 PTSVOX_LG014_F_session3_mic_L_1_corr_d_oiseaux_23_79 29 2 1 2 979 1280 0 0
test 28 PTSVOX_LG022_F_session3_mic_L_1_corr_l_oiseau_98_44 PTSVOX_LG011_F_session2_mic_L_1_corr_d_oiseaux_19_947 28 2 1 2 2130 2363 0 0
test 7 PTSVOX_LG009_F_session2_mic_L_1_corr_d_oiseaux_27_869 PTSVOX_LG011_F_session2_mic_L_1_corr_d_oiseaux_19_947 7 1 1 1 693 1058 0 0
test 4 PTSVOX_LG001_F_session2_mic_L_1_corr_d_oiseau_33_94 PTSVOX_LG020_F_session2_mic_L_1_corr_d_oiseaux_29_71 4 2 2 1 532 955 0 0
test 14 PTSVOX_LG011_F_session2_mic_L_1_corr_d_oiseaux_19_947 PTSVOX_LG020_F_session2_mic_L_1_corr_d_oiseaux_29_71 14 1 2 2 272 955 0 0
test 15 PTSVOX_LG011_F_session2_mic_L_1_corr_d_oiseaux_19_947 PTSVOX_LG022_F_session3_mic_L_1_corr_l_oiseau_98_44 15 1 2 2 786 1125 0 0
test 26 PTSVOX_LG022_F_session3_mic_L_1_corr_l_oiseau_98_44 PTSVOX_LG001_F_session2_mic_L_1_corr_d_oiseau_33_94 26 2 2 1 964 1382 0 0
test 13 PTSVOX_LG011_F_session2_mic_L_1_corr_d_oiseaux_19_947 PTSVOX_LG014_F_session3_mic_L_1_corr_d_oiseaux_23_79 13 1 1 1 877 1226 0 0
test 20 PTSVOX_LG014_F_session3_mic_L_1_corr_d_oiseaux_23_79 PTSVOX_LG022_F_session3_mic_L_1_corr_l_oiseau_98_44 20 2 2 1 408 731 0 0
test 12 PTSVOX_LG011_F_session2_mic_L_1_corr_d_oiseaux_19_947 PTSVOX_LG009_F_session2_mic_L_1_corr_d_oiseaux_27_869 12 1 2 2 251 685 0 0
test 19 PTSVOX_LG014_F_session3_mic_L_1_corr_d_oiseaux_23_79 PTSVOX_LG020_F_session2_mic_L_1_corr_d_oiseaux_29_71 19 2 2 1 73 433 0 0
test 2 PTSVOX_LG001_F_session2_mic_L_1_corr_d_oiseau_33_94 PTSVOX_LG011_F_session2_mic_L_1_corr_d_oiseaux_19_947 2 1 1 1 489 744 0 0
test 3 PTSVOX_LG001_F_session2_mic_L_1_corr_d_oiseau_33_94 PTSVOX_LG014_F_session3_mic_L_1_corr_d_oiseaux_23_79 3 1 1 1 530 721 0 0
test 22 PTSVOX_LG020_F_session2_mic_L_1_corr_d_oiseaux_29_71 PTSVOX_LG009_F_session2_mic_L_1_corr_d_oiseaux_27_869 22 1 2 2 843 1164 0 0
test 1 PTSVOX_LG001_F_session2_mic_L_1_corr_d_oiseau_33_94 PTSVOX_LG009_F_session2_mic_L_1_corr_d_oiseaux_27_869 1 1 2 2 214 548 0 0
test 16 PTSVOX_LG014_F_session3_mic_L_1_corr_d_oiseaux_23_79 PTSVOX_LG001_F_session2_mic_L_1_corr_d_oiseau_33_94 16 2 2 1 3553 3897 0 0
test 8 PTSVOX_LG009_F_session2_mic_L_1_corr_d_oiseaux_27_869 PTSVOX_LG014_F_session3_mic_L_1_corr_d_oiseaux_23_79 8 2 1 2 184 528 0 0
