test 24 PTSVOX_LG020_F_session2_mic_L_1_corr_d_oiseaux_29_71 PTSVOX_LG014_F_session3_mic_L_1_corr_d_oiseaux_23_79 24 1 1 3 10000 9716 0 0
test 5 PTSVOX_LG001_F_session2_mic_L_1_corr_d_oiseau_33_94 PTSVOX_LG022_F_session3_mic_L_1_corr_l_oiseau_98_44 5 1 2 2 587 697 0 0
test 2 PTSVOX_LG001_F_session2_mic_L_1_corr_d_oiseau_33_94 PTSVOX_LG011_F_session2_mic_L_1_corr_d_oiseaux_19_947 2 1 1 1 1838 1945 0 0
test 30 PTSVOX_LG022_F_session3_mic_L_1_corr_l_oiseau_98_44 PTSVOX_LG020_F_session2_mic_L_1_corr_d_oiseaux_29_71 30 2 2 1 899 999 0 0
test 16 PTSVOX_LG014_F_session3_mic_L_1_corr_d_oiseaux_23_79 PTSVOX_LG001_F_session2_mic_L_1_corr_d_oiseau_33_94 16 2 2 1 2239 2364 0 0
test 11 PTSVOX_LG011_F_session2_mic_L_1_corr_d_oiseaux_19_947 PTSVOX_LG001_F_session2_mic_L_1_corr_d_oiseau_33_94 11 2 2 1 1057 1202 0 0
test 20 PTSVOX_LG014_F_session3_mic_L_1_corr_d_oiseaux_23_79 PTSVOX_LG022_F_session3_mic_L_1_corr_l_oiseau_98_44 20 2 2 1 300 399 0 0
test 28 PTSVOX_LG022_F_session3_mic_L_1_corr_l_oiseau_98_44 PTSVOX_LG011_F_session2_mic_L_1_corr_d_oiseaux_19_947 28 2 1 2 869 986 0 0
test 13 PTSVOX_LG011_F_session2_mic_L_1_corr_d_oiseaux_19_947 PTSVOX_LG014_F_session3_mic_L_1_corr_d_oiseaux_23_79 13 1 1 1 713 795 0 0
test 9 PTSVOX_LG009_F_session2_mic_L_1_corr_d_oiseaux_27_869 PTSVOX_LG020_F_session2_mic_L_1_corr_d_oiseaux_29_71 9 2 2 1 54 142 0 0
test 17 PTSVOX_LG014_F_session3_mic_L_1_corr_d_oiseaux_23_79 PTSVOX_LG009_F_session2_mic_L_1_corr_d_oiseaux_27_869 17 1 1 1 966 1075 0 0
test 19 PTSVOX_LG014_F_session3_mic_L_1_corr_d_oiseaux_23_79 PTSVOX_LG020_F_session2_mic_L_1_corr_d_oiseaux_29_71 19 2 2 1 131 237 0 0
test 29 PTSVOX_LG022_F_session3_mic_L_1_corr_l_oiseau_98_44 PTSVOX_LG014_F_session3_mic_L_1_corr_d_oiseaux_23_79 29 2 1 2 194 305 0 0
test 14 PTSVOX_LG011_F_session2_mic_L_1_corr_d_oiseaux_19_947 PTSVOX_LG020_F_session2_mic_L_1_corr_d_oiseaux_29_71 14 1 2 2 548 637 0 0
test 22 PTSVOX_LG020_F_session2_mic_L_1_corr_d_oiseaux_29_71 PTSVOX_LG009_F_session2_mic_L_1_corr_d_oiseaux_27_869 22 1 1 1 520 627 0 0
test 1 PTSVOX_LG001_F_session2_mic_L_1_corr_d_oiseau_33_94 PTSVOX_LG009_F_session2_mic_L_1_corr_d_oiseaux_27_869 1 1 1 1 459 596 0 0
test 27 PTSVOX_LG022_F_session3_mic_L_1_corr_l_oiseau_98_44 PTSVOX_LG009_F_session2_mic_L_1_corr_d_oiseaux_27_869 27 2 1 2 769 847 0 0
test 18 PTSVOX_LG014_F_session3_mic_L_1_corr_d_oiseaux_23_79 PTSVOX_LG011_F_session2_mic_L_1_corr_d_oiseaux_19_947 18 1 1 1 530 606 0 0
test 25 PTSVOX_LG020_F_session2_mic_L_1_corr_d_oiseaux_29_71 PTSVOX_LG022_F_session3_mic_L_1_corr_l_oiseau_98_44 25 1 1 1 622 731 0 0
test 23 PTSVOX_LG020_F_session2_mic_L_1_corr_d_oiseaux_29_71 PTSVOX_LG011_F_session2_mic_L_1_corr_d_oiseaux_19_947 23 1 1 1 454 535 0 0
test 10 PTSVOX_LG009_F_session2_mic_L_1_corr_d_oiseaux_27_869 PTSVOX_LG022_F_session3_mic_L_1_corr_l_oiseau_98_44 10 2 2 1 510 587 0 0
test 15 PTSVOX_LG011_F_session2_mic_L_1_corr_d_oiseaux_19_947 PTSVOX_LG022_F_session3_mic_L_1_corr_l_oiseau_98_44 15 1 2 2 488 564 0 0
test 26 PTSVOX_LG022_F_session3_mic_L_1_corr_l_oiseau_98_44 PTSVOX_LG001_F_session2_mic_L_1_corr_d_oiseau_33_94 26 2 2 1 527 615 0 0
test 4 PTSVOX_LG001_F_session2_mic_L_1_corr_d_oiseau_33_94 PTSVOX_LG020_F_session2_mic_L_1_corr_d_oiseaux_29_71 4 2 2 1 679 766 0 0
test 3 PTSVOX_LG001_F_session2_mic_L_1_corr_d_oiseau_33_94 PTSVOX_LG014_F_session3_mic_L_1_corr_d_oiseaux_23_79 3 1 1 1 336 437 0 0
test 7 PTSVOX_LG009_F_session2_mic_L_1_corr_d_oiseaux_27_869 PTSVOX_LG011_F_session2_mic_L_1_corr_d_oiseaux_19_947 7 1 1 1 380 459 0 0
test 6 PTSVOX_LG009_F_session2_mic_L_1_corr_d_oiseaux_27_869 PTSVOX_LG001_F_session2_mic_L_1_corr_d_oiseau_33_94 6 2 2 1 360 465 0 0
test 8 PTSVOX_LG009_F_session2_mic_L_1_corr_d_oiseaux_27_869 PTSVOX_LG014_F_session3_mic_L_1_corr_d_oiseaux_23_79 8 2 1 2 661 748 0 0
test 21 PTSVOX_LG020_F_session2_mic_L_1_corr_d_oiseaux_29_71 PTSVOX_LG001_F_session2_mic_L_1_corr_d_oiseau_33_94 21 1 1 1 1429 1521 0 0
test 12 PTSVOX_LG011_F_session2_mic_L_1_corr_d_oiseaux_19_947 PTSVOX_LG009_F_session2_mic_L_1_corr_d_oiseaux_27_869 12 1 1 1 1230 1315 0 0
