mot	locuteur	sexe	session	phoneme	cpps_mean	spectral_slope_mean	f0	start_selection	end_selection
soleil	LG001	F	session2	oo	15.181	-34.899	222.516	89.463	89.503
soleil	LG001	F	session2	ll	16.614	-30.624	214.566	89.513	89.553
soleil	LG001	F	session2	ai	18.616	-22.425	227.637	89.591	89.631
soleil	LG001	F	session2	yy	10.462	-30.647	271.062	89.704	89.744

 soleil	LG001	F	session2	oo	15.111	-31.123	135.747	120.140	120.180
soleil	LG001	F	session2	ll	16.052	-31.831	242.429	120.193	120.233
soleil	LG001	F	session2	ai	18.782	-24.060	249.264	120.257	120.297
soleil	LG001	F	session2	yy	9.847	-31.575	263.708	120.331	120.371

 soleil	LG001	F	session2	oo	14.769	-30.924	248.707	129.065	129.105
soleil	LG001	F	session2	ll	16.729	-31.600	230.969	129.117	129.157
soleil	LG001	F	session2	ai	19.406	-24.398	228.875	129.200	129.240
soleil	LG001	F	session2	yy	11.945	-33.301	259.450	129.300	129.340

 soleil	LG001	F	session3	oo	17.675	-36.452	222.599	103.023	103.063
soleil	LG001	F	session3	ll	15.076	-31.000	218.466	103.073	103.113
soleil	LG001	F	session3	ai	19.503	-16.671	232.525	103.133	103.173
soleil	LG001	F	session3	yy	13.818	-27.474	277.452	103.195	103.235

 soleil	LG001	F	session3	oo	17.859	-32.662	221.013	132.633	132.673
soleil	LG001	F	session3	ll	11.676	-30.957	210.691	132.684	132.724
soleil	LG001	F	session3	ai	18.374	-20.479	223.629	132.753	132.793
soleil	LG001	F	session3	yy	15.607	-28.662	239.711	132.838	132.878

 soleil	LG001	F	session3	oo	17.881	-29.300	218.035	139.639	139.679
soleil	LG001	F	session3	ll	8.637	-15.725	209.407	139.684	139.724
soleil	LG001	F	session3	ai	20.155	-19.424	234.286	139.771	139.811
soleil	LG001	F	session3	yy	14.093	-28.983	264.911	139.877	139.917

 soleil	LG002	F	session2	oo	15.693	-28.679	235.556	70.620	70.660
soleil	LG002	F	session2	ll	14.761	-27.946	227.711	70.657	70.697
soleil	LG002	F	session2	ai	20.056	-21.461	237.580	70.703	70.743
soleil	LG002	F	session2	yy	15.451	-26.098	272.777	70.756	70.796

 soleil	LG002	F	session2	oo	19.074	-25.586	223.922	94.789	94.829
soleil	LG002	F	session2	ll	15.528	-27.219	210.860	94.826	94.866
soleil	LG002	F	session2	ai	21.853	-18.408	215.456	94.870	94.910
soleil	LG002	F	session2	yy	15.525	-26.197	259.739	94.944	94.984

 soleil	LG002	F	session2	oo	15.444	-32.157	213.204	101.531	101.571
soleil	LG002	F	session2	ll	15.949	-28.884	202.502	101.562	101.602
soleil	LG002	F	session2	ai	20.306	-20.675	209.996	101.606	101.646
soleil	LG002	F	session2	yy	11.939	-27.423	238.142	101.670	101.710

 soleil	LG002	F	session3	oo	19.064	-21.711	257.593	64.355	64.395
soleil	LG002	F	session3	ll	16.463	-25.284	243.663	64.399	64.439
soleil	LG002	F	session3	ai	23.471	-17.343	250.890	64.439	64.479
soleil	LG002	F	session3	yy	17.466	-22.385	282.811	64.493	64.533

 soleil	LG002	F	session3	oo	17.539	-24.515	242.032	87.106	87.146
soleil	LG002	F	session3	ll	12.301	-27.287	222.693	87.142	87.182
soleil	LG002	F	session3	ai	19.093	-20.516	240.735	87.183	87.223
soleil	LG002	F	session3	yy	15.705	-23.374	268.720	87.258	87.298

 soleil	LG002	F	session3	oo	18.315	-23.961	228.898	93.765	93.805
soleil	LG002	F	session3	ll	15.951	-33.188	214.215	93.809	93.849
soleil	LG002	F	session3	ai	18.960	-15.781	225.124	93.877	93.917
soleil	LG002	F	session3	yy	9.637	-26.048	232.489	93.967	94.007

 soleil	LG003	F	session2	oo	16.949	-30.746	235.452	71.642	71.682
soleil	LG003	F	session2	ll	15.579	-29.224	238.017	71.680	71.720
soleil	LG003	F	session2	ai	19.071	-22.741	246.313	71.711	71.751
soleil	LG003	F	session2	yy	16.589	-27.052	263.879	71.764	71.804

 soleil	LG003	F	session2	oo	15.120	-35.995	234.333	96.201	96.241
soleil	LG003	F	session2	ll	9.328	-35.116	208.967	96.237	96.277
soleil	LG003	F	session2	ai	16.703	-26.011	192.659	96.289	96.329
soleil	LG003	F	session2	yy	17.381	-29.191	225.311	96.370	96.410

 soleil	LG003	F	session2	oo	18.426	-25.437	222.044	103.101	103.141
soleil	LG003	F	session2	ll	15.459	-25.310	216.995	103.131	103.171
soleil	LG003	F	session2	ai	17.232	-17.799	214.537	103.164	103.204
soleil	LG003	F	session2	yy	15.173	-21.220	212.494	103.199	103.239

 soleil	LG003	F	session3	oo	11.442	-30.069	230.593	62.731	62.771
soleil	LG003	F	session3	ll	8.582	-23.994	223.196	62.764	62.804
soleil	LG003	F	session3	ai	19.389	-19.907	243.317	62.803	62.843
soleil	LG003	F	session3	yy	16.393	-18.601	264.879	62.856	62.896

 soleil	LG003	F	session3	oo	15.173	-28.184	212.393	85.773	85.813
soleil	LG003	F	session3	ll	12.418	-24.901	210.593	85.817	85.857
soleil	LG003	F	session3	ai	18.307	-20.609	210.394	85.868	85.908
soleil	LG003	F	session3	yy	15.647	-27.818	235.861	85.935	85.975

 soleil	LG003	F	session3	oo	13.092	-28.869	203.533	92.403	92.443
soleil	LG003	F	session3	ll	6.436	-26.944	196.115	92.441	92.481
soleil	LG003	F	session3	ai	17.115	-25.135	199.752	92.482	92.522
soleil	LG003	F	session3	yy	16.578	-29.828	221.281	92.531	92.571

 soleil	LG004	H	session2	oo	11.942	-31.424	120.313	84.391	84.431
soleil	LG004	H	session2	ll	11.486	-36.063	117.158	84.433	84.473
soleil	LG004	H	session2	ai	12.288	-30.371	122.570	84.478	84.518
soleil	LG004	H	session2	yy	12.679	-29.699	133.047	84.543	84.583

 soleil	LG004	H	session2	oo	12.574	-34.455	105.084	114.801	114.841
soleil	LG004	H	session2	ll	9.237	-32.529	101.734	114.842	114.882
soleil	LG004	H	session2	ai	10.611	-31.859	107.779	114.883	114.923
soleil	LG004	H	session2	yy	12.298	-31.290	120.725	114.966	115.006

 soleil	LG004	H	session2	oo	12.357	-34.389	107.447	123.720	123.760
soleil	LG004	H	session2	ll	8.936	-33.627	97.510	123.766	123.806
soleil	LG004	H	session2	ai	9.599	-28.950	95.840	123.818	123.858
soleil	LG004	H	session2	yy	9.438	-37.581	105.416	123.921	123.961

 soleil	LG004	H	session3	oo	9.673	-32.815	113.215	74.930	74.970
soleil	LG004	H	session3	ll	14.023	-29.083	112.139	74.968	75.008
soleil	LG004	H	session3	ai	13.925	-26.125	131.065	75.013	75.053
soleil	LG004	H	session3	yy	16.419	-26.393	138.334	75.071	75.111

 soleil	LG004	H	session3	oo	7.518	-34.495	111.171	103.651	103.691
soleil	LG004	H	session3	ll	6.764	-37.377	103.821	103.698	103.738
soleil	LG004	H	session3	ai	8.327	-30.356	112.710	103.775	103.815
soleil	LG004	H	session3	ii	15.872	-28.722	125.087	103.865	103.905
soleil	LG004	H	session3	yy	12.480	-28.722	--undefined--	103.916	103.956

 soleil	LG004	H	session3	oo	11.098	-31.638	118.296	111.926	111.966
soleil	LG004	H	session3	ll	14.370	-27.877	117.382	111.976	112.016
soleil	LG004	H	session3	ai	15.585	-27.016	128.932	112.035	112.075
soleil	LG004	H	session3	ii	15.171	-29.640	141.855	112.116	112.156

 soleil	LG005	H	session2	oo	6.714	-33.431	91.707	74.348	74.388
soleil	LG005	H	session2	ll	7.412	-28.688	97.851	74.390	74.430
soleil	LG005	H	session2	ai	10.089	-37.483	102.746	74.430	74.470
soleil	LG005	H	session2	yy	9.353	-39.272	109.794	74.491	74.531

 soleil	LG005	H	session2	oo	5.511	'spectral_slope_mean:3'	--undefined--	104.118	104.158
soleil	LG005	H	session2	ll	7.052	-37.917	89.986	104.145	104.185
soleil	LG005	H	session2	ai	9.171	-30.976	93.237	104.189	104.229
soleil	LG005	H	session2	yy	11.202	-34.507	95.124	104.272	104.312

 soleil	LG005	H	session2	oo	4.738	-44.868	87.673	112.678	112.718
soleil	LG005	H	session2	ll	5.353	-36.667	88.328	112.712	112.752
soleil	LG005	H	session2	ei	10.025	-34.511	92.392	112.758	112.798
soleil	LG005	H	session2	yy	7.503	-34.827	98.658	112.825	112.865

 soleil	LG005	H	session3	oo	14.298	-31.607	101.030	74.763	74.803
soleil	LG005	H	session3	ll	3.834	-27.481	98.236	74.794	74.834
soleil	LG005	H	session3	ai	11.601	-37.256	108.686	74.852	74.892
soleil	LG005	H	session3	yy	6.387	-36.643	115.632	74.931	74.971

 soleil	LG005	H	session3	oo	12.412	-29.248	96.451	101.002	101.042
soleil	LG005	H	session3	ll	9.643	-38.787	91.191	101.043	101.083
soleil	LG005	H	session3	ai	9.323	-36.420	96.316	101.087	101.127
soleil	LG005	H	session3	yy	9.056	-38.391	107.202	101.153	101.193

 soleil	LG005	H	session3	oo	9.882	'spectral_slope_mean:3'	--undefined--	107.796	107.836
soleil	LG005	H	session3	ll	2.718	-34.590	138.260	107.841	107.881
soleil	LG005	H	session3	ai	15.727	-34.590	--undefined--	107.909	107.949
soleil	LG005	H	session3	yy	7.610	-39.739	106.034	107.983	108.023

 soleil	LG006	F	session3	oo	9.196	-30.469	156.015	70.693	70.733
soleil	LG006	F	session3	ll	14.716	-33.995	154.084	70.717	70.757
soleil	LG006	F	session3	ai	17.983	-30.404	162.358	70.759	70.799
soleil	LG006	F	session3	yy	10.125	-35.804	165.136	70.816	70.856

 soleil	LG006	F	session3	oo	16.121	-33.692	164.867	97.453	97.493
soleil	LG006	F	session3	ll	15.594	-32.423	168.132	97.495	97.535
soleil	LG006	F	session3	ai	16.090	-30.292	172.094	97.537	97.577
soleil	LG006	F	session3	yy	16.578	-30.370	168.938	97.587	97.627

 soleil	LG006	F	session3	oo	4.627	'spectral_slope_mean:3'	--undefined--	102.932	102.972
soleil	LG006	F	session3	ll	6.129	-28.021	143.222	102.967	103.007
soleil	LG006	F	session3	ai	17.644	-27.578	143.491	103.001	103.041
soleil	LG006	F	session3	yy	16.965	-27.943	146.067	103.033	103.073

 soleil	LG007	F	session2	oo	13.550	-27.660	199.668	74.855	74.895
soleil	LG007	F	session2	ll	14.935	-31.294	203.692	74.910	74.950
soleil	LG007	F	session2	ai	17.601	-20.430	210.638	74.975	75.015
soleil	LG007	F	session2	yy	15.600	-24.063	228.941	75.056	75.096

 soleil	LG007	F	session2	oo	11.480	-26.566	203.049	100.624	100.664
soleil	LG007	F	session2	ll	15.154	-28.046	202.306	100.662	100.702
soleil	LG007	F	session2	ai	17.261	-22.261	218.150	100.710	100.750
soleil	LG007	F	session2	yy	17.794	-22.092	230.602	100.780	100.820
soleil	LG007	F	session2	aa	12.664	-17.557	220.791	100.820	100.860

 soleil	LG007	F	session3	oo	16.417	-30.576	200.719	66.878	66.918
soleil	LG007	F	session3	ll	18.462	-29.347	209.107	66.927	66.967
soleil	LG007	F	session3	ai	16.061	-27.776	222.055	66.978	67.018
soleil	LG007	F	session3	yy	12.657	-26.236	220.554	67.036	67.076

 soleil	LG007	F	session3	oo	8.703	-32.687	197.107	89.542	89.582
soleil	LG007	F	session3	ll	14.551	-34.255	199.608	89.572	89.612
soleil	LG007	F	session3	ai	17.820	-27.693	211.781	89.630	89.670
soleil	LG007	F	session3	yy	17.209	-27.371	215.682	89.712	89.752

 soleil	LG007	F	session3	oo	6.843	-27.583	180.728	96.148	96.188
soleil	LG007	F	session3	ll	7.352	-28.348	183.208	96.175	96.215
soleil	LG007	F	session3	ai	3.881	-28.084	202.178	96.224	96.264
soleil	LG007	F	session3	yy	11.471	-21.443	206.058	96.272	96.312

 soleil	LG008	H	session2	oo	14.158	-29.241	112.407	86.041	86.081
soleil	LG008	H	session2	ll	11.519	-29.403	112.351	86.080	86.120
soleil	LG008	H	session2	ai	13.876	-20.022	131.291	86.130	86.170
soleil	LG008	H	session2	yy	17.371	-22.577	150.905	86.200	86.240

 soleil	LG008	H	session2	oo	17.064	-22.597	114.405	115.325	115.365
soleil	LG008	H	session2	ll	15.008	-20.142	131.462	115.387	115.427
soleil	LG008	H	session2	ai	16.985	-21.772	140.181	115.430	115.470
soleil	LG008	H	session2	yy	15.955	-21.855	134.954	115.471	115.511

 soleil	LG008	H	session2	oo	8.598	'spectral_slope_mean:3'	--undefined--	122.575	122.615
soleil	LG008	H	session2	ll	11.882	-26.345	99.659	122.610	122.650
soleil	LG008	H	session2	ai	11.529	-20.548	112.286	122.665	122.705
soleil	LG008	H	session2	yy	9.228	-27.791	114.179	122.746	122.786

 soleil	LG008	H	session3	oo	13.089	-27.235	116.845	69.681	69.721
soleil	LG008	H	session3	ll	14.556	-22.207	123.039	69.726	69.766
soleil	LG008	H	session3	ai	13.114	-18.827	139.753	69.774	69.814
soleil	LG008	H	session3	yy	17.106	-18.129	145.978	69.832	69.872

 soleil	LG008	H	session3	oo	17.512	-24.956	114.728	98.515	98.555
soleil	LG008	H	session3	ll	14.912	-23.195	123.526	98.560	98.600
soleil	LG008	H	session3	ai	12.463	-22.643	136.909	98.603	98.643
soleil	LG008	H	session3	yy	13.621	-22.278	138.632	98.659	98.699

 soleil	LG008	H	session3	oo	10.435	-29.370	105.670	105.728	105.768
soleil	LG008	H	session3	ll	11.149	-29.283	110.254	105.758	105.798
soleil	LG008	H	session3	ai	10.187	-26.065	121.025	105.799	105.839
soleil	LG008	H	session3	yy	10.816	-32.551	131.976	105.841	105.881

 soleil	LG009	F	session2	oo	17.163	-38.167	206.418	109.457	109.497
soleil	LG009	F	session2	ll	15.576	-35.046	203.964	109.524	109.564
soleil	LG009	F	session2	ai	18.441	-26.586	216.445	109.620	109.660
soleil	LG009	F	session2	yy	14.340	-31.577	232.381	109.705	109.745

 soleil	LG009	F	session2	oo	17.400	-33.688	201.199	150.759	150.799
soleil	LG009	F	session2	ll	12.551	-32.976	202.411	150.797	150.837
soleil	LG009	F	session2	ai	20.695	-26.678	214.905	150.860	150.900
soleil	LG009	F	session2	yy	16.218	-30.337	215.218	150.940	150.980

 soleil	LG009	F	session2	au	17.177	-32.894	204.162	160.785	160.825
soleil	LG009	F	session2	ll	13.665	-25.874	206.530	160.828	160.868
soleil	LG009	F	session2	ai	20.618	-23.377	213.033	160.881	160.921
soleil	LG009	F	session2	yy	14.086	-31.139	231.580	160.965	161.005

 soleil	LG009	F	session3	oo	18.696	-34.094	230.729	81.212	81.252
soleil	LG009	F	session3	ll	10.092	-25.969	226.769	81.267	81.307
soleil	LG009	F	session3	ai	19.319	-24.036	249.140	81.320	81.360
soleil	LG009	F	session3	yy	15.555	-29.460	273.287	81.388	81.428

 soleil	LG009	F	session3	oo	19.094	-32.824	229.335	118.943	118.983
soleil	LG009	F	session3	ll	12.766	-27.180	226.193	118.994	119.034
soleil	LG009	F	session3	ai	20.813	-22.754	253.410	119.066	119.106
soleil	LG009	F	session3	yy	15.967	-30.575	256.271	119.160	119.200

 soleil	LG009	F	session3	oo	14.145	-31.605	213.997	126.640	126.680
soleil	LG009	F	session3	ll	13.926	-33.111	196.315	126.675	126.715
soleil	LG009	F	session3	ai	19.658	-23.046	220.620	126.735	126.775
soleil	LG009	F	session3	yy	19.426	-29.015	237.125	126.802	126.842

 soleil	LG010	H	session2	oo	13.703	-28.537	112.746	70.008	70.048
soleil	LG010	H	session2	ll	13.245	-24.360	110.878	70.059	70.099
soleil	LG010	H	session2	ai	10.648	-19.534	116.624	70.089	70.129
soleil	LG010	H	session2	yy	13.979	-24.089	125.665	70.139	70.179

 soleil	LG010	H	session2	oo	12.619	-31.907	98.375	93.379	93.419
soleil	LG010	H	session2	ll	3.550	-31.104	98.886	93.416	93.456
soleil	LG010	H	session2	ai	13.734	-27.737	103.343	93.455	93.495
soleil	LG010	H	session2	yy	10.029	-28.069	107.564	93.505	93.545

 soleil	LG010	H	session2	oo	13.203	-29.051	97.835	100.346	100.386
soleil	LG010	H	session2	ll	11.591	-27.453	98.547	100.385	100.425
soleil	LG010	H	session2	ai	11.841	-30.429	101.832	100.415	100.455
soleil	LG010	H	session2	yy	11.221	-30.017	104.736	100.454	100.494

 soleil	LG010	H	session3	au	14.285	-30.648	123.594	65.442	65.482
soleil	LG010	H	session3	ll	12.318	-28.057	123.399	65.487	65.527
soleil	LG010	H	session3	ai	17.522	-17.218	136.033	65.539	65.579
soleil	LG010	H	session3	yy	8.106	-26.328	144.548	65.603	65.643

 soleil	LG010	H	session3	oo	14.683	-29.220	109.560	88.961	89.001
soleil	LG010	H	session3	ll	9.278	-30.199	114.078	89.008	89.048
soleil	LG010	H	session3	ai	13.497	-16.532	131.739	89.063	89.103
soleil	LG010	H	session3	yy	12.312	-16.929	128.063	89.117	89.157

 soleil	LG010	H	session3	oo	10.152	-26.742	102.463	96.014	96.054
soleil	LG010	H	session3	ll	8.101	-25.725	102.692	96.067	96.107
soleil	LG010	H	session3	ai	15.033	-17.813	112.944	96.133	96.173
soleil	LG010	H	session3	yy	12.579	-20.598	122.403	96.216	96.256

 soleil	LG011	F	session2	oo	16.791	-38.909	205.020	71.830	71.870
soleil	LG011	F	session2	ll	13.852	-29.473	202.672	71.866	71.906
soleil	LG011	F	session2	ai	16.075	-25.958	222.478	71.915	71.955
soleil	LG011	F	session2	yy	14.827	-31.863	245.935	71.976	72.016

 soleil	LG011	F	session2	oo	15.176	-32.453	200.460	99.048	99.088
soleil	LG011	F	session2	ll	10.694	-29.503	199.563	99.094	99.134
soleil	LG011	F	session2	ai	16.362	-30.925	221.531	99.150	99.190
soleil	LG011	F	session2	yy	15.859	-36.374	225.174	99.220	99.260

 soleil	LG011	F	session2	oo	12.353	-24.358	186.011	107.006	107.046
soleil	LG011	F	session2	ll	7.395	-25.192	194.972	107.040	107.080
soleil	LG011	F	session2	ai	14.019	-32.485	213.231	107.098	107.138
soleil	LG011	F	session2	yy	10.669	-33.106	203.964	107.173	107.213

 soleil	LG011	F	session3	oo	15.116	-34.420	201.106	67.280	67.320
soleil	LG011	F	session3	ll	10.832	-35.548	197.378	67.326	67.366
soleil	LG011	F	session3	ai	16.717	-29.244	220.499	67.376	67.416
soleil	LG011	F	session3	yy	15.298	-33.162	240.335	67.434	67.474

 soleil	LG011	F	session3	oo	16.025	-35.436	192.248	91.522	91.562
soleil	LG011	F	session3	ll	14.227	-34.685	189.824	91.563	91.603
soleil	LG011	F	session3	ai	18.242	-27.876	207.814	91.612	91.652
soleil	LG011	F	session3	yy	15.673	-37.126	220.156	91.682	91.722

 soleil	LG011	F	session3	oo	11.287	-34.520	185.467	98.537	98.577
soleil	LG011	F	session3	ll	13.365	-32.880	183.558	98.577	98.617
soleil	LG011	F	session3	ai	14.799	-29.557	208.473	98.636	98.676
soleil	LG011	F	session3	yy	12.489	-34.396	214.919	98.704	98.744

 soleil	LG012	H	session2	oo	11.966	-35.025	146.578	82.867	82.907
soleil	LG012	H	session2	ll	6.589	-32.503	150.021	82.909	82.949
soleil	LG012	H	session2	ai	17.314	-30.681	159.980	82.970	83.010
soleil	LG012	H	session2	yy	14.057	-37.048	179.404	83.044	83.084

 soleil	LG012	H	session2	oo	16.213	-29.940	155.186	116.108	116.148
soleil	LG012	H	session2	ll	7.323	-33.305	155.815	116.172	116.212
soleil	LG012	H	session2	ai	18.768	-28.755	163.486	116.238	116.278
soleil	LG012	H	session2	yy	16.889	-36.554	176.092	116.328	116.368

 soleil	LG012	H	session2	oo	6.628	-32.476	156.225	123.172	123.212
soleil	LG012	H	session2	ll	10.864	-29.823	151.988	123.207	123.247
soleil	LG012	H	session2	ai	14.669	-30.028	154.605	123.265	123.305
soleil	LG012	H	session2	yy	14.861	-36.999	171.529	123.348	123.388

 soleil	LG012	H	session3	oo	15.537	-33.323	166.562	71.984	72.024
soleil	LG012	H	session3	ll	11.122	-32.333	162.646	72.028	72.068
soleil	LG012	H	session3	ai	16.251	-26.403	171.056	72.089	72.129
soleil	LG012	H	session3	yy	9.739	-35.183	190.364	72.160	72.200

 soleil	LG012	H	session3	eu	14.870	-30.236	145.423	101.121	101.161
soleil	LG012	H	session3	ll	16.019	-27.107	147.698	101.186	101.226
soleil	LG012	H	session3	ai	16.977	-25.291	161.525	101.252	101.292
soleil	LG012	H	session3	yy	14.051	-38.502	181.206	101.326	101.366

 soleil	LG012	H	session3	oo	18.024	-28.109	148.230	108.044	108.084
soleil	LG012	H	session3	ll	7.430	-36.297	152.285	108.083	108.123
soleil	LG012	H	session3	ai	15.290	-30.693	160.107	108.122	108.162
soleil	LG012	H	session3	yy	17.429	-33.745	168.049	108.180	108.220

 soleil	LG013	H	session2	oo	9.770	-30.933	127.466	76.059	76.099
soleil	LG013	H	session2	ll	3.400	-33.488	122.843	76.112	76.152
soleil	LG013	H	session2	ai	11.471	-29.387	130.524	76.170	76.210
soleil	LG013	H	session2	yy	12.398	-30.287	135.917	76.226	76.266

 soleil	LG013	H	session2	oo	11.913	-32.937	125.625	104.933	104.973
soleil	LG013	H	session2	ll	9.448	-36.289	123.531	104.979	105.019
soleil	LG013	H	session2	ai	13.614	-32.505	127.417	105.020	105.060
soleil	LG013	H	session2	yy	11.332	-33.697	132.174	105.077	105.117

 soleil	LG013	H	session2	oo	2.921	'spectral_slope_mean:3'	--undefined--	112.557	112.597
soleil	LG013	H	session2	ll	4.997	'spectral_slope_mean:3'	--undefined--	112.585	112.625
soleil	LG013	H	session2	ai	8.401	'spectral_slope_mean:3'	--undefined--	112.615	112.655
soleil	LG013	H	session2	yy	6.664	'spectral_slope_mean:3'	--undefined--	112.645	112.685

 soleil	LG013	H	session3	oo	11.597	-32.443	151.196	64.893	64.933
soleil	LG013	H	session3	ll	7.100	-35.650	148.805	64.937	64.977
soleil	LG013	H	session3	ai	17.226	-28.051	156.558	65.003	65.043
soleil	LG013	H	session3	yy	13.721	-30.539	161.798	65.088	65.128

 soleil	LG013	H	session3	oo	11.845	-30.632	150.694	94.842	94.882
soleil	LG013	H	session3	ll	10.743	-35.285	157.185	94.875	94.915
soleil	LG013	H	session3	ai	16.185	-30.706	161.697	94.922	94.962
soleil	LG013	H	session3	yy	4.527	-28.730	157.403	94.967	95.007

 soleil	LG013	H	session3	oo	7.312	-31.654	118.995	101.048	101.088
soleil	LG013	H	session3	ll	9.026	-34.172	118.669	101.076	101.116
soleil	LG013	H	session3	ai	11.245	-28.879	124.874	101.148	101.188
soleil	LG013	H	session3	yy	11.651	-32.217	131.883	101.239	101.279

 soleil	LG014	F	session2	oo	13.430	-32.152	104.086	72.361	72.401
soleil	LG014	F	session2	ll	15.133	-32.560	202.467	72.422	72.462
soleil	LG014	F	session2	ai	19.412	-27.584	210.122	72.495	72.535
soleil	LG014	F	session2	yy	15.583	-31.371	227.546	72.559	72.599

 soleil	LG014	F	session2	oo	14.862	-30.615	197.776	96.934	96.974
soleil	LG014	F	session2	ll	8.404	-28.598	193.950	96.965	97.005
soleil	LG014	F	session2	ai	18.977	-23.409	205.951	97.016	97.056
soleil	LG014	F	session2	yy	17.356	-31.529	215.968	97.089	97.129

 soleil	LG014	F	session2	oo	10.376	-35.835	199.379	104.210	104.250
soleil	LG014	F	session2	ll	3.137	-26.393	193.131	104.239	104.279
soleil	LG014	F	session2	ai	18.447	-24.380	198.375	104.301	104.341
soleil	LG014	F	session2	yy	17.073	-31.818	198.933	104.361	104.401

 soleil	LG014	F	session3	oo	6.095	-35.701	197.703	73.291	73.331
soleil	LG014	F	session3	ll	15.841	-34.167	193.324	73.355	73.395
soleil	LG014	F	session3	ai	16.463	-28.931	219.461	73.452	73.492
soleil	LG014	F	session3	yy	11.314	-30.178	227.958	73.527	73.567

 soleil	LG014	F	session3	oo	10.501	-28.309	100.153	98.869	98.909
soleil	LG014	F	session3	ll	12.790	-33.858	198.450	98.909	98.949
soleil	LG014	F	session3	ai	17.306	-25.189	209.250	98.977	99.017
soleil	LG014	F	session3	yy	15.244	-29.771	212.954	99.047	99.087

 soleil	LG014	F	session3	au	9.088	-27.207	195.140	107.329	107.369
soleil	LG014	F	session3	ll	16.483	-33.033	191.846	107.373	107.413
soleil	LG014	F	session3	ai	18.364	-29.256	189.910	107.437	107.477
soleil	LG014	F	session3	yy	15.498	-35.899	193.388	107.492	107.532

 soleil	LG015	H	session2	oo	12.295	-32.032	122.450	68.065	68.105
soleil	LG015	H	session2	ll	13.069	-31.755	122.726	68.108	68.148
soleil	LG015	H	session2	ai	16.870	-25.013	130.045	68.167	68.207
soleil	LG015	H	session2	yy	13.132	-29.357	136.682	68.227	68.267

 soleil	LG015	H	session2	oo	14.734	-26.668	117.994	95.397	95.437
soleil	LG015	H	session2	ll	10.676	-31.421	114.100	95.442	95.482
soleil	LG015	H	session2	ai	16.387	-25.497	117.034	95.485	95.525
soleil	LG015	H	session2	yy	15.567	-25.450	127.066	95.566	95.606

 soleil	LG015	H	session2	oo	13.467	-29.231	115.995	104.710	104.750
soleil	LG015	H	session2	ll	10.488	-36.904	118.458	104.760	104.800
soleil	LG015	H	session2	ai	6.876	-34.727	122.359	104.805	104.845
soleil	LG015	H	session2	yy	12.364	-27.133	122.884	104.889	104.929

 soleil	LG015	H	session3	oo	11.927	-31.754	114.178	71.211	71.251
soleil	LG015	H	session3	ll	17.367	-27.935	126.279	71.250	71.290
soleil	LG015	H	session3	ai	16.300	-25.788	130.099	71.304	71.344
soleil	LG015	H	session3	yy	3.622	-31.281	133.297	71.349	71.389

 soleil	LG015	H	session3	oo	7.024	-31.216	121.391	93.454	93.494
soleil	LG015	H	session3	ll	7.378	-31.297	115.865	93.509	93.549
soleil	LG015	H	session3	ai	15.424	-27.620	121.400	93.569	93.609
soleil	LG015	H	session3	yy	14.191	-23.522	121.416	93.622	93.662

 soleil	LG015	H	session3	oo	12.102	-30.697	112.548	99.525	99.565
soleil	LG015	H	session3	ll	14.448	-27.465	113.826	99.567	99.607
soleil	LG015	H	session3	ai	14.042	-32.336	115.859	99.626	99.666
soleil	LG015	H	session3	yy	12.061	-30.328	115.382	99.679	99.719

 soleil	LG016	H	session2	oo	17.284	-30.091	153.381	72.930	72.970
soleil	LG016	H	session2	ll	13.718	-36.209	153.708	72.993	73.033
soleil	LG016	H	session2	ai	18.024	-28.322	161.539	73.055	73.095
soleil	LG016	H	session2	yy	13.294	-30.194	179.402	73.119	73.159

 soleil	LG016	H	session2	oo	12.475	-32.658	139.566	99.081	99.121
soleil	LG016	H	session2	ll	8.368	-36.587	138.020	99.112	99.152
soleil	LG016	H	session2	ai	16.009	-28.254	160.489	99.155	99.195
soleil	LG016	H	session2	yy	14.338	-30.335	167.024	99.215	99.255

 soleil	LG016	H	session2	oo	7.432	'spectral_slope_mean:3'	--undefined--	106.038	106.078
soleil	LG016	H	session2	ll	5.507	-31.077	135.080	106.070	106.110
soleil	LG016	H	session2	ai	13.362	-29.999	146.779	106.120	106.160
soleil	LG016	H	session2	yy	15.604	-28.285	160.712	106.190	106.230

 soleil	LG016	H	session3	oo	6.887	-30.355	144.528	63.610	63.650
soleil	LG016	H	session3	ll	10.709	-36.824	150.044	63.649	63.689
soleil	LG016	H	session3	ai	16.238	-32.672	172.810	63.697	63.737
soleil	LG016	H	session3	yy	12.373	-30.644	184.810	63.746	63.786

 soleil	LG016	H	session3	oo	6.908	'spectral_slope_mean:3'	--undefined--	86.503	86.543
soleil	LG016	H	session3	ll	10.717	-38.434	142.363	86.542	86.582
soleil	LG016	H	session3	ai	16.238	-29.621	160.047	86.600	86.640
soleil	LG016	H	session3	yy	11.498	-24.913	149.668	86.668	86.708

 soleil	LG016	H	session3	oo	6.492	'spectral_slope_mean:3'	--undefined--	93.027	93.067
soleil	LG016	H	session3	ll	9.839	-29.874	139.125	93.063	93.103
soleil	LG016	H	session3	ai	16.382	-24.478	159.296	93.125	93.165
soleil	LG016	H	session3	yy	13.823	-24.038	155.447	93.201	93.241

 soleil	LG017	H	session2	oo	9.920	-37.421	113.316	92.073	92.113
soleil	LG017	H	session2	ll	3.049	-33.318	111.911	92.129	92.169
soleil	LG017	H	session2	ai	9.370	-33.411	118.319	92.205	92.245
soleil	LG017	H	session2	yy	7.479	-37.988	127.410	92.306	92.346

 soleil	LG017	H	session2	oo	11.612	-33.784	110.881	125.174	125.214
soleil	LG017	H	session2	ll	4.019	-43.106	101.984	125.224	125.264
soleil	LG017	H	session2	ai	12.268	-35.891	107.621	125.273	125.313
soleil	LG017	H	session2	yy	9.276	-33.692	113.399	125.348	125.388

 soleil	LG017	H	session2	oo	10.879	-34.102	113.414	134.280	134.320
soleil	LG017	H	session2	ll	0.614	-33.916	106.913	134.319	134.359
soleil	LG017	H	session2	ai	9.788	-35.017	115.413	134.361	134.401
soleil	LG017	H	session2	yy	12.710	-33.477	119.199	134.412	134.452

 soleil	LG017	H	session3	oo	12.852	-29.431	117.932	72.238	72.278
soleil	LG017	H	session3	ll	9.023	-34.624	110.438	72.290	72.330
soleil	LG017	H	session3	ai	14.260	-30.487	115.221	72.345	72.385
soleil	LG017	H	session3	yy	14.097	-29.438	124.796	72.418	72.458

 soleil	LG017	H	session3	oo	13.187	-30.409	122.996	102.397	102.437
soleil	LG017	H	session3	ll	11.818	-38.173	117.481	102.448	102.488
soleil	LG017	H	session3	ai	12.947	-28.375	131.229	102.500	102.540
soleil	LG017	H	session3	yy	12.287	-25.246	121.863	102.562	102.602

 soleil	LG017	H	session3	au	5.143	'spectral_slope_mean:3'	--undefined--	109.971	110.011
soleil	LG017	H	session3	ll	5.001	-38.786	99.927	110.008	110.048
soleil	LG017	H	session3	ai	12.888	-30.287	107.162	110.069	110.109
soleil	LG017	H	session3	yy	8.628	-32.312	108.629	110.147	110.187

 soleil	LG018	F	session2	oo	15.260	-34.135	213.756	87.927	87.967
soleil	LG018	F	session2	ll	10.128	-31.137	202.293	87.977	88.017
soleil	LG018	F	session2	ai	18.259	-22.275	232.780	88.043	88.083
soleil	LG018	F	session2	yy	15.167	-27.341	249.062	88.108	88.148

 soleil	LG018	F	session2	oo	13.639	-28.130	213.510	121.433	121.473
soleil	LG018	F	session2	ll	16.565	-29.799	206.506	121.491	121.531
soleil	LG018	F	session2	ai	18.452	-17.007	229.657	121.550	121.590
soleil	LG018	F	session2	yy	18.592	-21.329	244.864	121.628	121.668

 soleil	LG018	F	session2	eu	8.319	-28.670	188.405	130.043	130.083
soleil	LG018	F	session2	oo	16.270	-27.398	205.215	130.193	130.233
soleil	LG018	F	session2	ll	14.408	-32.791	197.555	130.251	130.291
soleil	LG018	F	session2	ai	20.273	-19.971	198.727	130.330	130.370
soleil	LG018	F	session2	yy	10.551	-25.413	233.371	130.430	130.470

 soleil	LG018	F	session3	oo	17.111	-22.584	228.996	81.205	81.245
soleil	LG018	F	session3	ll	16.779	-25.435	226.163	81.265	81.305
soleil	LG018	F	session3	ai	18.008	-18.824	257.175	81.330	81.370
soleil	LG018	F	session3	yy	18.118	-25.051	282.368	81.389	81.429

 soleil	LG018	F	session3	oo	18.115	-27.058	219.796	112.805	112.845
soleil	LG018	F	session3	ll	16.957	-29.625	211.341	112.869	112.909
soleil	LG018	F	session3	ai	20.801	-17.864	236.706	112.945	112.985
soleil	LG018	F	session3	yy	18.134	-23.110	257.263	113.030	113.070

 soleil	LG018	F	session3	oo	19.590	-24.487	208.605	121.971	122.011
soleil	LG018	F	session3	ll	19.864	-21.937	202.228	122.025	122.065
soleil	LG018	F	session3	ai	21.788	-15.803	217.084	122.115	122.155
soleil	LG018	F	session3	yy	9.680	-25.270	252.351	122.222	122.262

 soleil	LG019	H	session2	oo	12.314	-36.454	114.746	75.321	75.361
soleil	LG019	H	session2	ll	10.949	-40.093	118.695	75.377	75.417
soleil	LG019	H	session2	ai	13.616	-24.728	131.936	75.426	75.466
soleil	LG019	H	session2	yy	15.525	-25.916	141.220	75.478	75.518

 soleil	LG019	H	session2	oo	9.549	-26.726	98.393	100.614	100.654
soleil	LG019	H	session2	ll	13.934	-29.598	97.680	100.663	100.703
soleil	LG019	H	session2	ai	13.494	-22.302	106.361	100.714	100.754
soleil	LG019	H	session2	yy	13.564	-29.225	127.346	100.782	100.822

 soleil	LG019	H	session2	oo	12.592	-23.848	90.625	107.401	107.441
soleil	LG019	H	session2	ll	7.914	-35.348	85.362	107.455	107.495
soleil	LG019	H	session2	ai	10.732	-24.108	84.087	107.543	107.583
soleil	LG019	H	session2	yy	6.289	-29.180	104.462	107.641	107.681

 soleil	LG019	H	session3	oo	12.239	-30.437	111.534	62.868	62.908
soleil	LG019	H	session3	ll	9.563	-39.907	113.771	62.916	62.956
soleil	LG019	H	session3	ai	13.104	-29.759	127.149	62.980	63.020
soleil	LG019	H	session3	yy	13.909	-28.260	142.777	63.047	63.087

 soleil	LG019	H	session3	eu	3.710	'spectral_slope_mean:3'	--undefined--	84.768	84.808
soleil	LG019	H	session3	oo	11.420	-26.130	99.949	84.912	84.952
soleil	LG019	H	session3	ll	13.946	-32.158	95.396	84.955	84.995
soleil	LG019	H	session3	ai	6.852	-24.690	103.716	85.006	85.046
soleil	LG019	H	session3	yy	13.477	-30.348	138.264	85.068	85.108
soleil	LG019	H	session3	aa	8.789	-27.456	144.084	85.106	85.146

 soleil	LG019	H	session3	oo	9.481	-24.688	92.188	90.958	90.998
soleil	LG019	H	session3	ll	11.086	-21.241	82.737	91.012	91.052
soleil	LG019	H	session3	ai	6.691	-21.241	--undefined--	91.065	91.105
soleil	LG019	H	session3	yy	6.383	-21.241	--undefined--	91.128	91.168
soleil	LG019	H	session3	[pause]	6.668	-21.241	--undefined--	91.167	91.207

 soleil	LG020	F	session2	oo	18.328	-30.176	229.014	90.050	90.090
soleil	LG020	F	session2	ll	17.239	-28.532	223.254	90.113	90.153
soleil	LG020	F	session2	ai	19.377	-19.006	213.011	90.193	90.233
soleil	LG020	F	session2	yy	10.903	-31.711	245.599	90.295	90.335

 soleil	LG020	F	session2	oo	17.458	-32.796	232.800	120.121	120.161
soleil	LG020	F	session2	ll	14.975	-32.038	238.009	120.181	120.221
soleil	LG020	F	session2	ai	20.157	-21.701	259.109	120.255	120.295
soleil	LG020	F	session2	yy	17.318	-28.570	283.619	120.395	120.435

 soleil	LG020	F	session2	oo	17.744	-32.224	219.625	128.391	128.431
soleil	LG020	F	session2	ll	14.509	-27.052	216.903	128.446	128.486
soleil	LG020	F	session2	ai	19.815	-22.611	223.369	128.500	128.540
soleil	LG020	F	session2	yy	14.754	-31.620	243.099	128.585	128.625

 soleil	LG020	F	session3	oo	18.107	-24.682	238.835	76.306	76.346
soleil	LG020	F	session3	ll	15.806	-21.570	247.826	76.347	76.387
soleil	LG020	F	session3	ai	18.004	-14.786	258.505	76.390	76.430
soleil	LG020	F	session3	yy	14.586	-21.751	294.535	76.458	76.498

 soleil	LG020	F	session3	oo	17.728	-31.986	245.127	107.265	107.305
soleil	LG020	F	session3	ll	18.539	-22.995	247.550	107.295	107.335
soleil	LG020	F	session3	ai	17.691	-20.092	265.387	107.340	107.380
soleil	LG020	F	session3	yy	16.383	-24.768	271.636	107.397	107.437

 soleil	LG020	F	session3	oo	17.418	-31.978	214.648	114.707	114.747
soleil	LG020	F	session3	ll	17.008	-25.164	217.818	114.750	114.790
soleil	LG020	F	session3	ai	18.884	-20.468	235.784	114.805	114.845
soleil	LG020	F	session3	yy	13.647	-29.357	241.170	114.870	114.910

 soleil	LG021	H	session2	oo	17.000	-32.141	120.766	76.093	76.133
soleil	LG021	H	session2	ll	8.025	-32.348	118.794	76.149	76.189
soleil	LG021	H	session2	ai	13.960	-29.095	130.599	76.219	76.259
soleil	LG021	H	session2	yy	8.536	-34.278	139.017	76.295	76.335

 soleil	LG021	H	session2	oo	14.668	-33.075	116.207	108.395	108.435
soleil	LG021	H	session2	ll	5.569	-34.068	112.163	108.439	108.479
soleil	LG021	H	session2	ai	17.583	-24.517	130.257	108.493	108.533
soleil	LG021	H	session2	yy	13.892	-26.501	131.838	108.548	108.588

 soleil	LG021	H	session2	oo	5.401	'spectral_slope_mean:3'	--undefined--	115.054	115.094
soleil	LG021	H	session2	ll	8.335	-34.198	111.385	115.105	115.145
soleil	LG021	H	session2	ai	13.829	-29.317	124.987	115.162	115.202
soleil	LG021	H	session2	yy	9.912	-35.578	121.861	115.210	115.250

 soleil	LG021	H	session3	oo	11.179	-32.404	132.950	77.920	77.960
soleil	LG021	H	session3	ll	13.201	-40.888	131.094	77.972	78.012
soleil	LG021	H	session3	ai	14.875	-30.713	141.422	78.020	78.060
soleil	LG021	H	session3	yy	15.198	-36.304	144.976	78.070	78.110

 soleil	LG021	H	session3	oo	17.275	-34.617	119.438	106.808	106.848
soleil	LG021	H	session3	ll	4.264	-30.801	114.371	106.846	106.886
soleil	LG021	H	session3	ai	14.469	-32.039	133.737	106.885	106.925
soleil	LG021	H	session3	yy	13.119	-38.347	134.935	106.950	106.990

 soleil	LG021	H	session3	oo	10.991	-40.355	94.697	114.374	114.414
soleil	LG021	H	session3	ll	6.521	-39.246	105.417	114.420	114.460
soleil	LG021	H	session3	ai	16.754	-35.448	116.557	114.480	114.520
soleil	LG021	H	session3	yy	10.754	-37.426	118.611	114.555	114.595

 soleil	LG022	F	session2	au	18.214	-32.841	212.794	110.038	110.078
soleil	LG022	F	session2	ll	16.795	-33.335	206.262	110.097	110.137
soleil	LG022	F	session2	ai	16.473	-24.374	228.117	110.174	110.214
soleil	LG022	F	session2	yy	15.370	-32.061	237.011	110.268	110.308

 soleil	LG022	F	session2	au	17.314	-34.680	213.986	159.287	159.327
soleil	LG022	F	session2	ll	11.781	-34.496	207.252	159.344	159.384
soleil	LG022	F	session2	ai	17.429	-25.254	233.817	159.433	159.473
soleil	LG022	F	session2	yy	17.221	-33.303	240.250	159.520	159.560

 
 
 soleil	LG022	F	session3	oo	18.172	-30.998	215.337	104.588	104.628
soleil	LG022	F	session3	ll	16.233	-33.975	211.541	104.639	104.679
soleil	LG022	F	session3	ai	18.702	-24.501	232.748	104.709	104.749
soleil	LG022	F	session3	yy	17.792	-30.827	234.698	104.795	104.835

 soleil	LG022	F	session3	au	18.838	-35.563	217.459	146.350	146.390
soleil	LG022	F	session3	ll	15.409	-30.958	202.198	146.418	146.458
soleil	LG022	F	session3	ai	18.378	-24.911	230.768	146.489	146.529
soleil	LG022	F	session3	yy	18.010	-30.197	237.033	146.573	146.613

 soleil	LG022	F	session3	au	16.608	-26.064	206.979	156.479	156.519
soleil	LG022	F	session3	ll	17.175	-29.928	217.879	156.534	156.574
soleil	LG022	F	session3	ai	21.285	-25.173	230.840	156.597	156.637
soleil	LG022	F	session3	yy	20.594	-28.428	235.482	156.663	156.703

 soleil	LG023	F	session2	oo	16.935	-30.817	248.025	80.594	80.634
soleil	LG023	F	session2	ll	18.203	-31.682	239.950	80.640	80.680
soleil	LG023	F	session2	ai	20.283	-16.845	249.214	80.713	80.753
soleil	LG023	F	session2	yy	12.965	-21.074	273.734	80.788	80.828

 soleil	LG023	F	session2	oo	17.850	-30.893	242.793	111.374	111.414
soleil	LG023	F	session2	ll	18.687	-22.814	247.056	111.435	111.475
soleil	LG023	F	session2	ai	18.126	-18.696	269.747	111.500	111.540
soleil	LG023	F	session2	yy	17.113	-23.051	273.146	111.555	111.595

 soleil	LG023	F	session2	oo	11.925	-28.010	242.213	120.228	120.268
soleil	LG023	F	session2	ll	16.843	-28.984	226.758	120.263	120.303
soleil	LG023	F	session2	ai	18.688	-19.052	241.571	120.330	120.370
soleil	LG023	F	session2	yy	18.810	-24.771	260.565	120.402	120.442

 soleil	LG023	F	session3	oo	14.946	-29.419	250.558	75.805	75.845
soleil	LG023	F	session3	ll	13.791	-31.877	228.601	75.854	75.894
soleil	LG023	F	session3	ai	19.299	-19.598	242.523	75.929	75.969
soleil	LG023	F	session3	yy	13.301	-22.424	271.994	75.995	76.035

 soleil	LG023	F	session3	oo	15.639	-29.867	253.404	107.328	107.368
soleil	LG023	F	session3	ll	17.763	-24.539	243.757	107.370	107.410
soleil	LG023	F	session3	ai	21.250	-13.368	265.160	107.440	107.480
soleil	LG023	F	session3	yy	17.616	-19.332	285.838	107.530	107.570

 soleil	LG023	F	session3	oo	17.589	-29.395	237.656	116.285	116.325
soleil	LG023	F	session3	ll	17.298	-30.589	235.030	116.333	116.373
soleil	LG023	F	session3	ai	20.323	-17.025	252.135	116.403	116.443
soleil	LG023	F	session3	yy	16.920	-24.194	270.570	116.485	116.525

 soleil	LG024	H	session2	oo	9.878	-27.916	111.824	89.313	89.353
soleil	LG024	H	session2	ll	9.346	-33.835	112.498	89.360	89.400
soleil	LG024	H	session2	ai	13.260	-22.539	121.860	89.415	89.455
soleil	LG024	H	session2	yy	11.109	-26.862	137.419	89.470	89.510

 soleil	LG024	H	session2	oo	13.004	-28.243	112.566	122.597	122.637
soleil	LG024	H	session2	ll	10.507	-21.293	112.893	122.628	122.668
soleil	LG024	H	session2	ai	14.863	-22.633	124.707	122.670	122.710
soleil	LG024	H	session2	yy	9.298	-31.058	129.451	122.734	122.774

 soleil	LG024	H	session2	oo	10.823	-27.424	103.821	131.122	131.162
soleil	LG024	H	session2	ll	6.178	-34.437	105.772	131.169	131.209
soleil	LG024	H	session2	ai	13.563	-20.924	109.507	131.226	131.266
soleil	LG024	H	session2	yy	10.854	-30.875	121.857	131.285	131.325

 soleil	LG024	H	session3	oo	13.615	-25.324	104.311	76.323	76.363
soleil	LG024	H	session3	ll	12.591	-27.970	105.580	76.362	76.402
soleil	LG024	H	session3	ai	14.680	-20.491	112.535	76.411	76.451
soleil	LG024	H	session3	yy	14.578	-24.197	124.169	76.461	76.501

 soleil	LG024	H	session3	oo	11.575	-24.895	101.545	105.425	105.465
soleil	LG024	H	session3	ll	12.560	-29.898	104.426	105.461	105.501
soleil	LG024	H	session3	ai	13.123	-20.765	115.624	105.508	105.548
soleil	LG024	H	session3	yy	10.328	-25.298	117.215	105.568	105.608

 soleil	LG024	H	session3	oo	10.112	-25.146	90.321	111.926	111.966
soleil	LG024	H	session3	ll	6.427	-36.797	88.734	111.976	112.016
soleil	LG024	H	session3	ai	16.930	-18.751	102.762	112.042	112.082
soleil	LG024	H	session3	yy	13.286	-23.063	104.593	112.117	112.157
