version: 3.4.4
server-time: 2023-06-30-16-36
user_agent: mozilla/5.0 (windows nt 10.0; win64; x64; rv:109.0) gecko/20100101 firefox/114.0
screen_width: 0
screen_height: 0
html_width: 0
html_height: 0
user_time: 0
T: 0
l: genre
stime: 2023-06-30-16-36
T: 1585
t: radio
a: 2
l: age
stime: 2023-06-30-16-36
T: 4091
t: range
a: 24
s: 24
l: langueMaternelle
stime: 2023-06-30-16-36
T: 1748
t: radio
a: 1
l: troublesAuditionLangage
stime: 2023-06-30-16-36
T: 5959
t: check
a: Je ne souffre d'aucun trouble
a: 
a: 
l: connaissancevoixbrillante
stime: 2023-06-30-16-36
T: 2836
t: check
a: 
a: Non
l: expertiseSDL
stime: 2023-06-30-16-37
T: 2360
t: range
a: 1
s: 1
l: expe
stime: 2023-06-30-16-40
T: 197844
t: experiment
endcode: 
end 2023-06-30-16-40
